World Happiness Report (WHR) Data Preparation – Final_Project_VAA
…
There is a need to check if there are any countries with more than 10 rows of data given that the number of yearly data obtained is 10.

# Check for duplicate rows
cleaned_data %>%
  count(country) %>%
  filter(n > 10)

# A tibble: 125 × 2
   country         n
   <chr>       <int>
 1 Afghanistan    11
 2 Albania        11
 3 Algeria        11
 4 Argentina      11
 5 Armenia        11
 6 Australia      11
 7 Austria        11
 8 Bahrain        11
 9 Bangladesh     11
10 Belgium        11
# ℹ 115 more rows
…
